…
## 
## Attaching package: 'dplyr'

## The following objects are masked from 'package:stats':
## 
##     filter, lag

## The following objects are masked from 'package:base':
## 
##     intersect, setdiff, setequal, union

my_first_tbl <- tbl_df(df)
my_first_tbl

## # A tibble: 26 x 2
##        a      b
##    <int> <fctr>
##  1     1      a
##  2     2      b
##  3     3      c
##  4     4      d
##  5     5      e
##  6     6      f
##  7     7      g
##  8     8      h
##  9     9      i
## 10    10      j
## # ... with 16 more rows
…
class(df[,"b", drop=FALSE])

## [1] "data.frame"

sum(as.character(df[,"b", drop=FALSE],1,1) == 'b')

## [1] 0

There are other differences too. For example, data_frame() by default does NOT convert strings to factors:

my_second_tbl <- data_frame(a = 1:26,
                            b = letters)
my_second_tbl

## # A tibble: 26 x 2
##        a     b
##    <int> <chr>
##  1     1     a
##  2     2     b
##  3     3     c
##  4     4     d
##  5     5     e
##  6     6     f
##  7     7     g
##  8     8     h
##  9     9     i
## 10    10     j
## # ... with 16 more rows
…
