…
  mutate(Date = lubridate::mdy(Date) - lubridate::days(1)) %>% 
  filter(country_region == "US") %>% 
  arrange(province, Date)  %>% 
  # up to here, no problem. same as before.
  # solution? filter out state rows prior to march 8, and county rows after that. 
  filter(str_detect(province, ", ") & Date <= "2020-03-8" |
           str_detect(province, ", ", negate = TRUE) & Date > "2020-03-8") %>% 
  group_by(Date) %>% # then group by Date and sum
  summarize(cumulative_cases = sum(cumulative_cases)) 
# manually add in march 12 and 13
bind_rows(us_confirmed_total[1:51,], 
          tibble(Date = ymd(c("2020-03-12","2020-03-13")),
                 cumulative_cases = c(1215, 1629)))

## # A tibble: 53 x 2
##    Date       cumulative_cases
##    <date>                <dbl>
##  1 2020-01-21                1
##  2 2020-01-22                1
##  3 2020-01-23                2
##  4 2020-01-24                2
##  5 2020-01-25                5
##  6 2020-01-26                5
##  7 2020-01-27                5
##  8 2020-01-28                5
##  9 2020-01-29                5
## 10 2020-01-30                7
## # … with 43 more rows
…
